tile,top digit,left digit,right digit,top confidence,left confidence,right confidence,number of misidentified digits
1,1,7,3,2.391,3.146,2.356,
2,1,7,8,2.414,3.150,2.052,
3,1,6,4,2.865,2.308,3.136,
4,9,2,8,1.972,2.193,2.027,
5,1,7,4,2.547,3.024,3.029,
6,9,6,4,2.203,2.616,3.656,
7,1,2,4,3.032,2.229,3.295,
8,5,2,3,1.634,1.952,2.098,
9,5,7,8,1.840,2.717,2.170,
10,5,6,3,2.060,2.212,2.422,
11,9,7,4,2.087,3.251,3.522,
12,5,2,4,1.728,2.142,2.290,
13,9,7,8,1.852,2.315,1.900,
14,9,6,8,2.007,1.964,1.940,
15,9,2,3,1.905,2.335,2.477,
16,9,2,4,1.812,2.044,3.088,
17,5,6,8,1.860,1.915,2.276,
18,5,2,8,1.763,2.300,1.981,
19,1,6,3,2.407,2.153,2.100,
