tile,top digit,left digit,right digit,top confidence,left confidence,right confidence,number of misidentified digits
1,1,7,4,2.854,3.602,4.041,
2,1,2,4,3.011,2.753,3.386,
3,1,7,3,2.999,3.099,2.416,
4,9,6,4,1.785,2.773,3.826,
5,9,7,8,1.938,3.822,2.252,
6,9,6,8,2.272,2.604,3.103,
7,9,2,8,2.040,3.435,3.192,
8,5,2,3,1.984,2.531,2.218,
9,1,6,8,2.807,2.267,2.379,
10,1,2,8,2.307,2.689,2.400,
11,1,2,3,2.755,3.652,2.445,
12,5,7,3,2.968,3.584,2.445,
13,5,2,4,2.226,2.362,3.277,
14,5,7,4,2.325,3.560,3.571,
15,5,6,4,2.555,2.678,3.822,
16,5,7,8,2.661,2.361,2.313,
17,1,6,3,2.567,2.572,2.292,
18,1,6,4,2.135,1.972,2.385,
19,9,7,3,2.462,2.821,2.404,
