tile,top digit,left digit,right digit,top confidence,left confidence,right confidence,number of misidentified digits
1,1,6,8,2.125,1.516,2.000,
2,1,7,4,2.344,2.466,2.143,
3,1,7,3,2.588,2.298,1.471,
4,9,6,4,1.733,1.442,1.852,
5,9,6,8,2.150,1.529,1.904,
6,9,7,8,2.098,2.424,1.894,
7,9,2,4,2.099,1.981,2.059,
8,5,6,3,1.392,1.399,1.463,
9,5,6,4,1.472,1.428,1.883,
10,1,7,8,2.785,2.445,1.835,
11,5,2,4,1.476,2.097,1.894,
12,5,2,3,1.518,2.016,1.478,
13,1,6,3,1.573,1.606,1.576,
14,5,7,3,1.487,2.196,1.493,
15,5,6,8,1.501,1.530,1.786,
16,1,2,8,2.235,1.975,1.917,
17,9,7,3,1.681,2.255,1.462,
18,9,6,3,1.925,1.446,1.509,
19,9,2,8,1.780,1.588,1.605,
