tile,top digit,left digit,right digit,top confidence,left confidence,right confidence,number of misidentified digits
1,1,6,3,3.021,2.159,2.442,
2,5,6,4,2.043,2.853,3.319,
3,1,7,3,2.578,2.719,2.144,
4,1,6,8,2.722,1.828,2.637,
5,1,6,4,3.887,2.767,4.117,
6,1,7,8,3.107,4.022,2.490,
7,1,2,4,3.366,2.408,3.981,
8,9,6,3,2.256,1.833,2.135,
9,9,6,8,2.861,2.681,2.726,
10,9,7,3,2.916,3.592,2.701,
11,9,2,4,1.970,2.873,3.519,
12,9,2,8,2.382,2.200,2.247,
13,5,6,3,2.745,2.512,2.183,
14,5,7,8,3.016,4.159,2.828,
15,5,2,3,2.953,3.590,2.170,
16,5,2,4,3.330,2.905,2.904,
17,5,7,3,2.262,3.267,2.315,
18,1,2,8,2.231,3.410,2.538,
19,1,2,3,2.493,2.361,1.540,
