tile,top digit,left digit,right digit,top confidence,left confidence,right confidence,number of misidentified digits
1,1,2,3,3.686,4.252,2.391,
2,5,2,8,4.437,4.599,3.438,
3,5,7,4,4.448,3.560,3.414,
4,1,2,8,3.852,3.858,3.260,
5,1,2,4,2.644,3.573,3.151,
6,1,7,8,4.084,3.141,3.624,
7,9,6,4,3.993,3.661,3.813,
8,9,2,3,2.938,3.822,2.744,
9,9,2,8,3.025,4.068,3.059,
10,9,7,8,3.033,3.914,3.000,
11,9,6,8,2.772,3.561,3.056,
12,9,6,3,2.634,3.753,2.509,
13,5,2,3,2.664,3.672,2.726,
14,5,7,8,3.063,3.728,2.699,
15,9,7,4,2.716,4.124,3.673,
16,5,6,8,3.233,2.886,3.031,
17,1,7,3,2.570,3.505,2.414,
18,1,6,8,2.878,2.889,2.414,
19,5,7,3,2.850,3.494,2.418,
