tile,top digit,left digit,right digit,top confidence,left confidence,right confidence,number of misidentified digits
1,9,7,8,1.280,1.777,1.595,
2,9,6,8,1.308,1.857,1.536,
3,9,2,8,1.475,1.514,1.741,
4,1,7,4,2.666,1.870,2.423,
5,9,6,4,1.410,2.086,2.481,
6,1,6,8,3.073,2.127,1.822,
7,1,7,3,3.487,2.292,1.786,
8,5,7,4,1.606,1.815,2.389,
9,5,6,4,1.872,1.994,2.737,
10,5,7,3,1.764,2.261,1.796,
11,5,7,8,2.004,2.117,1.845,
12,5,2,4,1.956,1.910,2.486,
13,1,6,4,2.607,1.779,2.440,
14,5,2,3,1.652,1.547,1.695,
15,1,6,3,2.736,1.957,1.762,
16,1,2,8,2.860,1.841,1.778,
17,9,7,4,1.291,1.636,1.983,
18,1,2,4,2.649,1.852,2.094,
19,1,2,3,2.206,1.898,1.747,
