tile,top digit,left digit,right digit,top confidence,left confidence,right confidence,number of misidentified digits
1,1,2,8,3.812,1.936,1.941,
2,1,7,3,3.020,2.699,2.303,
3,1,6,3,4.432,3.436,2.806,
4,9,2,4,2.910,2.434,4.308,
5,9,7,8,3.353,2.405,3.490,
6,9,7,3,3.769,2.514,2.608,
7,9,6,3,4.083,2.662,2.481,
8,1,2,3,4.067,3.448,2.851,
9,1,7,4,4.494,3.679,4.500,
10,1,7,8,2.735,2.399,3.219,
11,5,6,4,3.620,2.519,2.649,
12,5,6,3,2.859,2.130,2.174,
13,5,7,8,3.253,3.066,2.189,
14,5,7,4,4.096,2.908,3.134,
15,1,6,8,3.421,2.604,3.619,
16,5,2,4,3.159,3.183,2.435,
17,5,7,3,2.652,2.946,2.306,
18,9,2,3,3.987,4.924,3.458,
19,9,2,8,2.675,2.793,2.572,
