tile,top digit,left digit,right digit,top confidence,left confidence,right confidence,number of misidentified digits
1,1,2,8,1.123,1.155,1.257,
2,1,7,3,1.336,1.544,1.601,
3,1,6,3,1.560,1.847,1.593,
4,9,2,4,1.260,1.237,2.039,
5,9,7,8,1.451,1.630,1.788,
6,9,7,3,1.654,1.729,1.633,
7,9,6,3,1.848,1.899,1.360,
8,1,2,3,1.574,1.444,1.665,
9,1,7,4,1.628,1.886,2.581,
10,1,7,8,1.652,1.663,1.966,
11,5,6,4,1.799,1.677,2.020,
12,5,6,3,1.668,1.491,1.307,
13,5,7,8,1.347,1.735,1.685,
14,5,7,4,1.361,1.740,2.072,
15,1,6,8,1.957,1.668,1.901,
16,5,2,4,1.692,1.663,2.004,
17,5,7,3,1.484,1.625,1.454,
18,9,2,3,1.978,1.901,1.485,
19,9,2,8,1.770,1.626,1.811,
