tile,top digit,left digit,right digit,top confidence,left confidence,right confidence,number of misidentified digits
1,9,2,8,1.346,2.092,2.170,
2,9,7,8,1.513,2.529,2.568,
3,9,6,4,1.841,2.908,4.318,
4,5,2,4,2.006,2.057,2.247,
5,5,7,8,2.351,2.809,2.546,
6,5,6,3,2.576,2.575,2.570,
7,5,2,3,3.514,3.847,3.042,
8,9,2,4,1.312,2.214,2.836,
9,1,7,3,2.300,3.014,2.434,
10,9,6,8,1.884,2.464,2.603,
11,9,2,3,2.684,4.314,3.782,
12,9,7,4,2.709,4.065,3.619,
13,1,7,4,2.279,3.028,3.457,
14,1,6,4,2.513,2.253,3.194,
15,5,2,8,2.779,3.633,3.186,
16,1,7,8,4.051,4.446,3.606,
17,1,6,3,2.641,2.318,2.999,
18,1,2,4,3.478,3.190,4.323,
19,5,6,8,3.022,3.186,3.327,
