tile,top digit,left digit,right digit,top confidence,left confidence,right confidence,number of misidentified digits
1,1,7,3,4.047,3.398,2.960,
2,1,7,8,3.282,3.672,2.993,
3,1,6,4,4.627,3.150,4.371,
4,9,2,8,3.262,3.510,3.109,
5,1,7,4,2.880,3.602,2.218,
6,9,6,4,2.636,3.897,4.535,
7,1,2,4,4.420,3.347,4.709,
8,5,2,3,2.507,3.734,2.461,
9,5,7,8,2.835,2.223,1.406,
10,5,6,3,1.150,2.653,2.746,
11,9,7,4,2.998,4.362,4.386,
12,5,2,4,2.256,3.056,2.401,
13,9,7,8,3.508,2.686,3.263,
14,9,6,8,2.529,2.151,3.193,
15,9,2,3,2.839,3.823,3.402,
16,9,2,4,3.828,3.715,4.199,
17,5,6,8,2.765,2.286,3.629,
18,5,2,8,2.267,4.277,3.517,
19,1,6,3,3.970,3.635,3.273,
