tile,top digit,left digit,right digit,top confidence,left confidence,right confidence,number of misidentified digits
1,1,2,3,1.355,1.222,1.418,
2,1,7,3,1.263,1.473,1.593,
3,1,6,8,1.585,1.535,1.622,
4,5,2,8,1.530,1.226,1.132,
5,5 (9),7,8,1.088,1.406,1.420,1
6,5,2,4,1.587,1.491,2.123,
7,5,6,8,1.648,1.859,1.661,
8,9,6,4,1.072,1.451,1.723,
9,5,7,8,1.362,1.379,1.139,
10,5,2,3,1.559,1.702,1.806,
11,5,6,3,1.805,1.906,2.016,
12,1,7,8,2.496,1.747,1.699,
13,9,7,4,1.106,1.340,1.939,
14,9,2,8,1.025,1.432,1.342,
15,9,6,3,1.281,1.825,1.865,
16,9,6,8,1.522,1.784,1.751,
17,1,7,4,2.617,1.364,1.735,
18,1,6,3,1.675,1.657,1.696,
19,5,7,3,1.616,1.927,1.975,
