tile,top digit,left digit,right digit,top confidence,left confidence,right confidence,number of misidentified digits
1,1,7,4,3.120,3.659,4.454,
2,1,2,4,3.431,3.893,4.236,
3,1,7,3,3.212,3.175,2.470,
4,9,6,4,1.697,2.927,4.504,
5,9,7,8,2.119,4.497,2.524,
6,9,6,8,2.631,2.824,3.345,
7,9,2,8,2.557,3.783,3.384,
8,5,2,3,2.131,2.902,2.184,
9,1,6,8,2.900,2.235,2.685,
10,1,2,8,2.228,2.910,2.618,
11,1,2,3,2.738,3.862,2.500,
12,5,7,3,3.176,3.491,2.768,
13,5,2,4,2.070,2.785,3.497,
14,5,7,4,2.440,3.740,4.010,
15,5,6,4,3.032,2.890,4.339,
16,5,7,8,2.505,2.467,2.430,
17,1,6,3,2.850,2.754,2.426,
18,1,6,4,2.178,2.047,2.381,
19,9,7,3,2.703,2.603,2.402,
