tile,top digit,left digit,right digit,top confidence,left confidence,right confidence,number of misidentified digits
1,1,2,3,1.845,1.815,1.377,
2,5,2,8,1.922,2.123,2.139,
3,5,7,4,2.073,1.736,2.096,
4,1,2,8,2.188,2.038,2.190,
5,1,2,4,1.745,1.981,2.080,
6,1,7,8,1.991,1.859,2.247,
7,9,6,4,2.196,1.935,2.413,
8,9,2,3,1.899,1.982,1.462,
9,9,2,8,2.029,2.043,2.106,
10,9,7,8,2.043,1.904,2.096,
11,9,6,8,1.988,2.128,2.124,
12,9,6,3,1.964,2.048,1.456,
13,5,2,3,1.791,2.022,1.342,
14,5,7,8,1.912,1.856,1.951,
15,9,7,4,1.846,1.879,2.133,
16,5,6,8,1.718,1.724,1.799,
17,1,7,3,1.963,1.590,1.167,
18,1,6,8,2.009,1.720,1.764,
19,5,7,3,1.570,1.596,1.177,
