tile,top digit,left digit,right digit,top confidence,left confidence,right confidence,number of misidentified digits
1,9,7,4,2.942,3.120,4.254,
2,9,2,3,2.737,3.071,3.174,
3,9,6,8,3.431,3.279,3.221,
4,9,2,8,3.023,3.467,2.974,
5,1,6,3,4.113,3.825,3.156,
6,9,6,3,3.310,4.368,3.693,
7,9,7,8,3.461,4.658,3.747,
8,1,7,4,4.116,3.953,3.647,
9,1,2,8,4.944,4.450,3.221,
10,5,6,4,3.513,4.143,4.273,
11,1,7,3,3.214,4.022,2.847,
12,5,2,8,2.107,1.681,1.573,
13,5,2,4,4.347,4.447,4.185,
14,5,6,8,3.684,4.785,3.003,
15,1,7,8,4.810,5.482,3.142,
16,1,2,3,3.313,2.796,2.472,
17,1,6,4,3.710,2.757,3.474,
18,5,7,8,3.706,4.758,2.962,
19,5,7,3,3.871,4.969,2.654,
