tile,top digit,left digit,right digit,top confidence,left confidence,right confidence,number of misidentified digits
1,1,2,3,1.355,1.221,1.418,
2,1,7,3,1.263,1.472,1.593,
3,1,6,8,1.585,1.535,1.622,
4,5,2,8,1.530,1.227,1.133,
5,5 (9),7,8,1.087,1.408,1.419,1
6,5,2,4,1.587,1.492,2.122,
7,5,6,8,1.648,1.858,1.661,
8,9,6,4,1.072,1.455,1.723,
9,5,7,8,1.362,1.378,1.139,
10,5,2,3,1.559,1.702,1.807,
11,5,6,3,1.804,1.906,2.014,
12,1,7,8,2.496,1.744,1.699,
13,9,7,4,1.105,1.339,1.939,
14,9,2,8,1.026,1.432,1.342,
15,9,6,3,1.282,1.824,1.864,
16,9,6,8,1.525,1.783,1.752,
17,1,7,4,2.614,1.364,1.734,
18,1,6,3,1.676,1.657,1.696,
19,5,7,3,1.615,1.929,1.977,
