tile,top digit,left digit,right digit,top confidence,left confidence,right confidence,number of misidentified digits
1,9,7,8,1.227,1.715,1.599,
2,9,6,8,1.302,1.445,1.535,
3,9,2,8,1.241,1.288,1.404,
4,1,7,4,1.468,2.101,2.247,
5,9,6,4,1.396,1.768,2.323,
6,1,6,8,1.448,1.645,1.585,
7,1,7,3,1.252,1.790,1.749,
8,5,7,4,1.918,2.014,2.278,
9,5,6,4,1.944,1.886,2.359,
10,5,7,3,1.881,2.219,1.853,
11,5,7,8,1.860,2.136,1.535,
12,5,2,4,2.008,1.512,2.184,
13,1,6,4,1.567,1.787,2.595,
14,5,2,3,1.848,1.514,1.844,
15,1,6,3,1.490,1.832,1.773,
16,1,2,8,1.461,1.689,1.473,
17,9,7,4,1.381,1.910,2.188,
18,1,2,4,1.501,1.940,1.976,
19,1,2,3,1.517,1.737,1.723,
