tile,top digit,left digit,right digit,top confidence,left confidence,right confidence,number of misidentified digits
1,1,7,3,1.337,2.199,1.756,
2,1,6,4,1.416,1.730,2.207,
3,1,7,8,1.426,2.156,1.586,
4,9,7,4,1.434,2.249,2.558,
5,9,6,3,1.467,2.088,1.694,
6,1,6,8,1.437,1.797,1.656,
7,9,7,8,1.437,2.239,1.690,
8,5,7,3,2.047,2.146,1.831,
9,5,2,4,2.190,2.166,2.498,
10,5,2,3,2.100,2.215,1.835,
11,5,2,8,2.041,2.139,1.828,
12,5,6,3,2.212,1.831,1.755,
13,1,2,4,1.714,2.313,2.531,
14,9,2,4,1.590,2.395,2.589,
15,9,2,3,1.613,2.426,2.091,
16,9,6,4,1.623,1.969,3.029,
17,5,6,4,2.049,1.898,2.235,
18,1,7,4,1.807,2.800,2.658,
19,1,6,3,1.824,2.003,1.846,
