tile,top digit,left digit,right digit,top confidence,left confidence,right confidence,number of misidentified digits
1,9,7,8,3.964,4.839,3.102,
2,9,6,8,2.653,4.356,2.191,
3,9,2,8,3.407,3.923,3.296,
4,1,7,4,5.169,4.156,4.069,
5,9,6,4,3.513,4.387,5.432,
6,1,6,8,5.312,4.493,3.242,
7,1,7,3,4.304,3.811,2.522,
8,5,7,4,2.770,4.112,5.215,
9,5,6,4,4.036,5.055,6.482,
10,5,7,3,3.777,5.589,2.657,
11,5,7,8,3.830,3.639,3.326,
12,5,2,4,3.219,4.103,3.241,
13,1,6,4,4.752,4.881,6.193,
14,5,2,3,2.856,2.746,2.631,
15,1,6,3,4.543,3.691,3.106,
16,1,2,8,4.727,3.936,3.134,
17,9,7,4,2.362,3.441,5.013,
18,1,2,4,4.841,4.403,4.384,
19,1,2,3,3.070,3.706,2.485,
