tile,top digit,left digit,right digit,top confidence,left confidence,right confidence,number of misidentified digits
1,1,6,3,2.817,2.313,2.289,
2,5,6,4,2.494,3.522,3.755,
3,1,7,3,2.761,2.294,1.787,
4,1,6,8,2.438,1.968,3.091,
5,1,6,4,4.578,3.058,4.090,
6,1,7,8,3.823,3.316,2.894,
7,1,2,4,3.965,2.334,4.756,
8,9,6,3,3.018,2.024,2.071,
9,9,6,8,3.872,2.901,2.958,
10,9,7,3,3.862,3.020,2.369,
11,9,2,4,2.788,3.173,4.199,
12,9,2,8,3.347,2.503,2.671,
13,5,6,3,3.423,2.660,1.996,
14,5,7,8,3.893,3.388,3.175,
15,5,2,3,3.709,4.195,2.155,
16,5,2,4,4.467,3.433,3.216,
17,5,7,3,2.870,2.725,2.062,
18,1,2,8,2.439,3.412,2.417,
19,1,2,3,2.480,2.550,1.372,
