tile,top digit,left digit,right digit,top confidence,left confidence,right confidence,number of misidentified digits
1,9,7,4,2.138,1.767,2.764,
2,9,2,3,1.904,1.653,1.793,
3,9,6,8,2.147,1.752,2.246,
4,9,2,8,2.768,2.279,2.520,
5,1,6,3,2.955,2.251,1.906,
6,9,6,3,2.368,2.285,2.041,
7,9,7,8,2.490,2.299,2.592,
8,1,7,4,3.466,2.403,3.046,
9,1,2,8,4.082,2.680,2.672,
10,5,6,4,3.477,2.485,3.533,
11,1,7,3,2.813,2.263,1.881,
12,5,2,8,2.025,1.537,1.589,
13,5,2,4,4.459,3.235,3.254,
14,5,6,8,3.630,2.624,2.555,
15,1,7,8,3.394,2.528,2.667,
16,1,2,3,2.810,2.197,1.869,
17,1,6,4,2.931,2.113,2.925,
18,5,7,8,3.320,2.433,2.836,
19,5,7,3,3.328,2.389,1.851,
