tile,top digit,left digit,right digit,top confidence,left confidence,right confidence,number of misidentified digits
1,1,7,3,1.633,2.129,2.318,
2,1,7,8,1.679,2.303,2.363,
3,1,6,4,2.032,3.109,3.736,
4,9,2,8,1.379,1.783,2.167,
5,1,7,4,1.720,2.481,3.168,
6,9,6,4,1.733,3.092,3.792,
7,1,2,4,1.975,1.865,3.483,
8,5,2,3,2.218,1.855,2.158,
9,5,7,8,2.398,2.523,2.510,
10,5,6,3,2.704,3.131,2.110,
11,9,7,4,1.697,2.285,3.170,
12,5,2,4,2.698,1.938,3.102,
13,9,7,8,1.447,2.128,1.937,
14,9,6,8,1.544,2.676,1.930,
15,9,2,3,1.709,1.898,2.148,
16,9,2,4,1.696,1.734,3.181,
17,5,6,8,2.743,2.321,2.219,
18,5,2,8,2.527,1.780,2.147,
19,1,6,3,1.729,2.716,1.844,
