tile,top digit,left digit,right digit,top confidence,left confidence,right confidence,number of misidentified digits
1,1,2,8,1.141,1.137,1.359,
2,1,7,3,1.244,1.678,1.813,
3,1,6,3,1.688,2.299,2.149,
4,9,2,4,1.096,1.197,2.180,
5,9,7,8,1.215,1.680,1.897,
6,9,7,3,1.427,2.000,1.930,
7,9,6,3,1.991,2.033,1.723,
8,1,2,3,1.362,1.461,1.961,
9,1,7,4,1.438,2.446,2.929,
10,1,7,8,1.396,1.966,2.217,
11,5,6,4,2.010,1.906,2.161,
12,5,6,3,1.939,1.701,1.500,
13,5,7,8,1.576,2.318,1.736,
14,5,7,4,1.177,2.181,2.414,
15,1,6,8,2.006,1.902,2.466,
16,5,2,4,2.014,2.062,2.096,
17,5,7,3,1.620,2.168,1.811,
18,9,2,3,1.829,2.340,1.862,
19,9,2,8,1.812,1.883,1.935,
