tile,top digit,left digit,right digit,top confidence,left confidence,right confidence,number of misidentified digits
1,5,7,8,2.899,4.176,2.475,
2,5,7,4,2.968,3.104,3.316,
3,5,7,3,3.511,3.241,2.720,
4,1,2,8,3.569,3.759,3.436,
5,1,6,4,5.673,3.510,5.236,
6,1,7,4,4.384,4.453,3.541,
7,1,2,3,4.869,4.429,2.839,
8,5,2,3,3.048,3.946,2.600,
9,5,6,8,3.456,3.518,3.361,
10,1,7,3,3.526,3.197,1.556,
11,5,2,8,2.877,3.672,3.178,
12,5,6,3,3.750,2.774,2.420,
13,9,7,4,3.327,3.894,3.532,
14,9,7,8,3.176,3.695,1.834,
15,1 (9),2,4,1.038,2.191,2.418,1
16,9,6,4,3.250,3.279,3.222,
17,9,7,3,2.745,3.102,2.601,
18,9,7 (2),8,1.802,1.188,1.734,1
19,9,6,3,1.752,2.252,2.549,
