tile,top digit,left digit,right digit,top confidence,left confidence,right confidence,number of misidentified digits
1,9,2,8,1.282,2.237,2.097,
2,9,7,8,1.603,2.511,2.559,
3,9,6,4,1.832,2.896,4.156,
4,5,2,4,2.123,2.181,2.278,
5,5,7,8,2.221,2.721,2.475,
6,5,6,3,2.614,2.656,2.578,
7,5,2,3,3.666,4.082,3.139,
8,9,2,4,1.327,2.157,2.874,
9,1,7,3,2.179,3.093,2.519,
10,9,6,8,1.850,2.550,2.616,
11,9,2,3,2.698,4.298,3.483,
12,9,7,4,2.725,4.312,3.635,
13,1,7,4,2.464,2.990,3.628,
14,1,6,4,2.309,2.300,3.135,
15,5,2,8,2.762,3.715,3.060,
16,1,7,8,3.935,4.199,3.839,
17,1,6,3,2.531,2.435,2.928,
18,1,2,4,3.271,3.431,4.425,
19,5,6,8,3.212,3.243,3.475,
