tile,top digit,left digit,right digit,top confidence,left confidence,right confidence,number of misidentified digits
1,1,7,3,1.920,2.667,2.328,
2,1,6,4,2.164,2.194,2.469,
3,1,7,8,2.379,3.061,1.005,
4,9,7,4,1.533,2.805,2.620,
5,9,6,3,1.708,2.206,1.880,
6,1,6,8,1.258,2.252,1.610,
7,9,7,8,2.007,3.028,2.244,
8,5,7,3,2.066,2.313,2.043,
9,5,2,4,2.164,2.452,2.877,
10,5,7 (2),3,1.244,1.159,1.730,1
11,5,2,8,1.447,2.549,2.261,
12,5,6,3,2.312,2.261,2.168,
13,1,2,4,2.031,2.686,2.761,
14,9,2,4,1.655,2.300,2.669,
15,9,2,3,1.846,2.206,2.281,
16,9,6,4,1.968,2.260,2.597,
17,5,6,4,2.380,2.345,2.645,
18,1,7,4,2.330,2.940,2.708,
19,1,6,3,1.919,2.030,2.210,
