tile,top digit,left digit,right digit,top confidence,left confidence,right confidence,number of misidentified digits
1,1,2,8,1.284,1.179,1.504,
2,1,7,3,1.412,1.539,1.497,
3,1,6,3,1.922,1.953,1.627,
4,9,2,4,1.554,1.381,2.257,
5,9,7,8,1.648,1.499,1.892,
6,9,7,3,1.855,1.569,1.433,
7,9,6,3,2.016,1.667,1.195,
8,1,2,3,1.980,1.561,1.488,
9,1,7,4,2.031,1.941,2.460,
10,1,7,8,1.796,1.465,1.733,
11,5,6,4,1.792,1.405,1.650,
12,5,6,3,1.548,1.277,1.143,
13,5,7,8,1.558,1.815,1.685,
14,5,7,4,1.860,1.471,1.776,
15,1,6,8,1.737,1.365,1.641,
16,5,2,4,1.557,1.566,1.723,
17,5,7,3,1.629,1.541,1.329,
18,9,2,3,1.268,1.839,1.288,
19,9,2,8,1.368,1.460,1.605,
