tile,top digit,left digit,right digit,top confidence,left confidence,right confidence,number of misidentified digits
1,1,2,8,1.623,1.465,1.701,
2,1,7,3,1.971,1.987,1.683,
3,1,6,3,2.782,2.245,1.700,
4,9,2,4,1.841,1.790,2.908,
5,9,7,8,2.145,1.768,2.277,
6,9,7,3,2.224,1.759,1.549,
7,9,6,3,2.087,1.608,1.232,
8,1,2,3,2.511,2.142,1.730,
9,1,7,4,2.710,2.192,2.851,
10,1,7,8,2.055,1.641,1.787,
11,5,6,4,2.014,1.439,1.627,
12,5,6,3,1.615,1.268,1.156,
13,5,7,8,2.186,1.993,1.740,
14,5,7,4,2.247,1.562,1.793,
15,1,6,8,1.877,1.378,1.832,
16,5,2,4,1.618,1.629,1.648,
17,5,7,3,1.865,1.556,1.459,
18,9,2,3,1.921,2.136,1.338,
19,9,2,8,1.562,1.546,1.651,
