tile,top digit,left digit,right digit,top confidence,left confidence,right confidence,number of misidentified digits
1,1,2,3,1.598,1.552,1.182,
2,5,2,8,1.531,1.700,1.728,
3,5,7,4,1.698,1.462,1.744,
4,1,2,8,1.927,1.691,1.664,
5,1,2,4,1.564,1.689,1.749,
6,1,7,8,1.752,1.492,1.692,
7,9,6,4,1.960,1.495,1.938,
8,9,2,3,1.714,1.674,1.275,
9,9,2,8,1.709,1.776,1.746,
10,9,7,8,1.788,1.575,1.676,
11,9,6,8,1.826,1.661,1.803,
12,9,6,3,1.834,1.796,1.269,
13,5,2,3,1.518,1.771,1.214,
14,5,7,8,1.752,1.544,1.740,
15,9,7,4,1.809,1.630,1.847,
16,5,6,8,1.618,1.577,1.643,
17,1,7,3,1.825,1.416,1.114,
18,1,6,8,2.093,1.558,1.640,
19,5,7,3,1.653,1.489,1.144,
