tile,top digit,left digit,right digit,top confidence,left confidence,right confidence,number of misidentified digits
1,1,6,3,2.182,1.977,1.921,
2,5,6,4,2.096,2.782,2.964,
3,1,7,3,2.146,2.009,1.608,
4,1,6,8,1.935,1.738,2.519,
5,1,6,4,2.957,2.500,3.134,
6,1,7,8,2.590,2.727,2.424,
7,1,2,4,2.680,2.087,3.594,
8,9,6,3,2.328,1.764,1.761,
9,9,6,8,2.804,2.388,2.445,
10,9,7,3,2.857,2.485,2.005,
11,9,2,4,2.290,2.666,3.242,
12,9,2,8,2.627,2.199,2.270,
13,5,6,3,2.554,2.227,1.721,
14,5,7,8,2.881,2.709,2.598,
15,5,2,3,2.816,3.276,1.864,
16,5,2,4,3.141,2.802,2.630,
17,5,7,3,2.331,2.278,1.768,
18,1,2,8,1.993,2.774,2.086,
19,1,2,3,2.006,2.217,1.325,
