tile,top digit,left digit,right digit,top confidence,left confidence,right confidence,number of misidentified digits
1,9,2,8,1.751,1.922,2.270,
2,9,7,8,1.993,2.160,2.474,
3,9,6,4,2.073,2.576,3.227,
4,5,2,4,2.237,1.914,2.556,
5,5,7,8,2.619,2.410,2.559,
6,5,6,3,2.697,2.460,2.207,
7,5,2,3,2.676,2.800,2.511,
8,9,2,4,1.609,1.844,2.656,
9,1,7,3,1.633,2.468,2.077,
10,9,6,8,2.000,2.427,2.640,
11,9,2,3,2.844,3.127,3.056,
12,9,7,4,2.587,3.074,3.520,
13,1,7,4,1.595,2.272,2.978,
14,1,6,4,1.793,2.185,3.105,
15,5,2,8,2.778,2.483,2.610,
16,1,7,8,2.566,3.200,2.874,
17,1,6,3,1.697,2.464,2.321,
18,1,2,4,1.998,2.250,3.430,
19,5,6,8,3.186,2.930,2.557,
