tile,top digit,left digit,right digit,top confidence,left confidence,right confidence,number of misidentified digits
1,1,7,8,3.314,2.912,3.170,
2,5,2,3,3.807,2.541,1.907,
3,5,6,4,3.714,3.482,4.136,
4,5,7,4,3.217,3.306,2.929,
5,5,2,8,2.945,2.758,2.172,
6,5,6,3,3.051,2.372,1.835,
7,5,2,4,3.803,2.801,2.746,
8,9,2,4,1.851,2.146,1.862,
9,9,7,3,2.029,2.479,1.815,
10,9,6,8,1.626,2.027,1.505,
11,9,2,3,2.795,3.635,2.283,
12,9,6,4,2.455,2.041,2.405,
13,9,7,4,1.267,1.820,1.590,
14,1,6,3,1.133,1.327,1.580,
15,1,2,8,1.198,2.740,2.405,
16,5,7,3,2.837,2.129,1.728,
17,1,7,3,1.079,1.711,1.681,
18,1,2,3,1.061,1.923,1.865,
19,1,6,8,2.600,2.468,2.438,
