tile,top digit,left digit,right digit,top confidence,left confidence,right confidence,number of misidentified digits
1,1,2,8,2.913,2.338,2.749,
2,1,2,3,2.878,3.346,2.543,
3,1,7,8,4.356,3.424,3.586,
4,5,2,4,3.207,3.504,3.696,
5,5,2,8,3.514,2.715,2.671,
6,5,6,3,3.989,3.176,3.196,
7,5,7,4,4.375,3.529,3.639,
8,9,2,3,3.676,2.933,2.213,
9,9,2,4,3.303,3.093,3.309,
10,9,6,8,2.820,3.049,2.960,
11,9,7,3,3.012,3.100,2.787,
12,9,6,4,3.880,3.553,4.026,
13,5,2,3,2.809,3.073,2.269,
14,5,6,4,4.266,2.677,3.625,
15,1,7,3,2.139,2.469,1.775,
16,5,7,3,2.416,1.184,1.753,
17,1,6,3,4.867,3.502,3.230,
18,9,7,4,2.644,2.419,2.800,
19,1,6,8,1.995,3.346,2.058,
