tile,top digit,left digit,right digit,top confidence,left confidence,right confidence,number of misidentified digits
1,9,7,4,3.431,2.874,3.524,
2,9,2,3,3.474,3.475,3.430,
3,9,6,8,3.057,2.869,3.547,
4,9,2,8,3.391,3.761,3.628,
5,1,6,3,4.245,3.452,3.337,
6,9,6,3,3.735,3.628,3.715,
7,9,7,8,3.982,3.482,3.533,
8,1,7,4,3.164,3.012,3.084,
9,1,2,8,4.176,5.267,3.163,
10,5,6,4,3.799,3.384,4.063,
11,1,7,3,3.872,5.343,3.269,
12,5,2,8,2.518,1.855,1.806,
13,5,2,4,3.690,4.173,3.363,
14,5,6,8,4.525,4.256,3.396,
15,1,7,8,4.512,5.342,3.554,
16,1,2,3,3.941,3.678,2.606,
17,1,6,4,3.030,2.411,2.727,
18,5,7,8,4.166,4.478,3.228,
19,5,7,3,4.029,5.448,2.901,
