tile,top digit,left digit,right digit,top confidence,left confidence,right confidence,number of misidentified digits
1,1,2,8,3.505,1.989,1.971,
2,1,7,3,2.956,2.623,2.335,
3,1,6,3,4.601,3.537,2.772,
4,9,2,4,3.027,2.444,4.280,
5,9,7,8,3.715,2.294,3.175,
6,9,7,3,3.963,2.615,2.737,
7,9,6,3,4.587,2.737,2.171,
8,1,2,3,4.116,3.544,2.844,
9,1,7,4,4.534,4.009,4.712,
10,1,7,8,2.760,2.593,3.196,
11,5,6,4,3.736,2.471,2.711,
12,5,6,3,3.209,2.108,2.163,
13,5,7,8,3.204,3.215,2.200,
14,5,7,4,4.186,3.191,3.249,
15,1,6,8,3.664,2.819,3.239,
16,5,2,4,3.858,3.532,2.588,
17,5,7,3,2.571,3.005,2.361,
18,9,2,3,4.340,4.819,3.511,
19,9,2,8,2.898,2.820,2.566,
