tile,top digit,left digit,right digit,top confidence,left confidence,right confidence,number of misidentified digits
1,5,2,3,3.332,2.738,2.568,
2,1,7,8,2.426,2.043,2.383,
3,1,7,4,3.358,3.188,2.992,
4,9,2,8,3.235,3.004,3.061,
5,9,7,3,2.880,1.965,2.098,
6,9,6,8,3.562,2.159,3.096,
7,9,6,3,3.447,2.534,1.822,
8,5,2,4,3.647,3.452,3.562,
9,1,2,8,1.969,3.038,2.448,
10,1,6,3,1.751,2.134,2.005,
11,1,6,8,2.544,1.929,2.215,
12,1,7,3,4.383,2.777,1.722,
13,9,2,4,2.827,2.655,1.948,
14,5,6,4,2.675,2.254,1.957,
15,9,6,4,5.131,3.210,3.558,
16,9,7,8,4.397,2.231,2.179,
17,5,6,3,1.491,1.558,1.458,
18,5,6,8,3.100,2.483,2.815,
19,5,7,3,1.930,1.483,1.591,
