tile,top digit,left digit,right digit,top confidence,left confidence,right confidence,number of misidentified digits
1,9,7,4,3.167,2.980,3.346,
2,9,2,3,3.220,3.270,3.466,
3,9,6,8,2.746,2.669,3.109,
4,9,2,8,3.261,3.284,3.539,
5,1,6,3,3.789,3.589,3.346,
6,9,6,3,3.304,3.397,3.724,
7,9,7,8,3.512,3.627,3.494,
8,1,7,4,3.518,3.003,2.968,
9,1,2,8,4.078,4.767,3.144,
10,5,6,4,3.138,3.354,4.009,
11,1,7,3,4.186,4.985,3.176,
12,5,2,8,2.339,1.869,1.721,
13,5,2,4,3.134,4.008,3.441,
14,5,6,8,3.454,3.858,3.017,
15,1,7,8,4.229,5.358,3.221,
16,1,2,3,4.063,3.351,2.915,
17,1,6,4,2.685,2.262,2.718,
18,5,7,8,3.549,4.362,2.878,
19,5,7,3,3.348,5.698,2.900,
