tile,top digit,left digit,right digit,top confidence,left confidence,right confidence,number of misidentified digits
1,5,7,8,2.437,3.348,2.088,
2,5,7,4,3.313,3.876,3.476,
3,5,7,3,3.391,3.457,3.096,
4,1,2,8,2.532,2.727,2.516,
5,1,6,4,3.945,3.456,4.129,
6,1,7,4,4.168,4.246,4.207,
7,1,2,3,4.908,3.989,3.000,
8,5,2,3,1.725,2.089,1.589,
9,5,6,8,2.305,3.117,2.414,
10,1,7,3,3.691,3.543,2.461,
11,5,2,8,3.991,4.104,3.552,
12,5,6,3,3.872,2.929,2.393,
13,9,7,4,1.552,2.437,3.030,
14,9,7,8,1.918,3.320,2.471,
15,9,2,4,2.774,4.012,4.539,
16,9,6,4,3.728,3.296,4.027,
17,9,7,3,1.805,2.897,1.989,
18,9,2,8,2.149,2.728,2.524,
19,9,6,3,3.218,3.640,2.588,
