tile,top digit,left digit,right digit,top confidence,left confidence,right confidence,number of misidentified digits
1,5,7,8,2.987,3.628,2.527,
2,5,7,4,3.991,3.539,3.698,
3,5,7,3,4.283,3.327,3.206,
4,1,2,8,4.192,3.446,3.886,
5,1,6,4,5.930,3.793,4.785,
6,1,7,4,5.779,4.384,4.714,
7,1,2,3,4.942,4.556,3.737,
8,5,2,3,3.542,3.786,2.203,
9,5,6,8,4.170,3.401,3.759,
10,1,7,3,4.894,4.226,2.674,
11,5,2,8,4.986,5.341,4.188,
12,5,6,3,5.568,3.623,3.475,
13,9,7,4,3.675,4.594,4.168,
14,9,7,8,3.687,4.587,3.321,
15,9,2,4,4.538,4.536,5.186,
16,9,6,4,4.028,4.199,5.413,
17,9,7,3,3.306,3.932,2.357,
18,9,2,8,3.030,3.021,2.659,
19,9,6,3,3.686,4.542,2.834,
