tile,top digit,left digit,right digit,top confidence,left confidence,right confidence,number of misidentified digits
1,5,2,3,1.491,1.481,2.040,
2,1,7,8,1.297,1.723,1.235,
3,1,7,4,2.228,2.789,2.913,
4,9,2,8,1.579,1.748,2.327,
5,9,7,3,1.767,1.618,1.745,
6,9,6,8,2.106,1.985,2.206,
7,9,6,3,2.016,1.968,1.334,
8,5,2,4,1.618,1.885,2.759,
9,1,2,8,1.243,2.116,2.195,
10,1,6,3,1.417,1.542,1.490,
11,1,6,8,1.647,1.498,1.821,
12,1,7,3,2.280,1.873,1.396,
13,9,2,4,1.780,1.928,1.863,
14,5,6,4,1.702,1.713,1.953,
15,9,6,4,2.105,1.792,2.410,
16,9,7,8,2.184,1.602,2.003,
17,5,6,3,1.190,1.389,1.279,
18,5,6,8,2.005,1.697,2.091,
19,5,7,3,1.514,1.301,1.311,
